﻿[content:Sao nhiều đứa xấu xí cứ thích chụp ảnh tự sướng nhỉ+time:2017-10-23 20:30:11+2017-10-23 20:30:15+ACC:xyzasbcde+label:1]
[content:Thì ngoài bản thân tụi nó ra, đâu có ai muốn chụp tụi nó nữa+time:2017-10-23 20:30:20+2017-10-23 20:30:20+ACC:xyzasbcde+label:2]
[content:Nếu mình cho cậu 10 triệu, cậu có dám ăn *** không+time:2017-10-23 20:30:30+2017-10-23 20:30:30+ACC:xyzasbcde+label:3]
[content:Mình sẽ ăn đến khi cậu sạt nghiệp mới thôi+time:2017-10-23 20:30:25+2017-10-23 20:30:25+ACC:mnqpapapa+label:1]
[content:Yêu từ cái nhìn đầu tiên là cảm giác thế nào nhỉ+time:2017-10-23 20:30:18+2017-10-23 20:30:40+ACC:mnqpapapa+label:2]
[content:Mở ví lôi pô li me ra nhìn là biết+time:2017-10-23 20:30:30+2017-10-23 20:30:44+ACC:mnqpapapa+label:3]
[content:Mãi không có bạn gái, chẳng lẽ yêu cầu của mình quá cao sao+time:2017-10-23 20:30:30+2017-10-23 20:30:40+ACC:ssnsnsnhm+label:1]
[content:Đừng ngốc nữa, là người ta yêu cầu cao đó+time:2017-10-23 20:30:39+2017-10-23 20:30:47+ACC:ssnsnsnhm+label:2]
[content:26 tuổi mới bắt đầu học piano có muộn không nhỉ+time:2017-10-23 20:30:52+2017-10-23 20:30:59+ACC:ssnsnsnhm+label:3]