﻿[content:helloword+time:2017-10-23 20:30:11+2017-10-23 20:30:15+ACC:xyzasbcde+label:1]
[content:helloword+time:2017-10-23 20:30:20+2017-10-23 20:30:20+ACC:xyzasbcde+label:2]
[content:helloword+time:2017-10-23 20:30:30+2017-10-23 20:30:30+ACC:xyzasbcde+label:3]
[content:helloword+time:2017-10-23 20:30:25+2017-10-23 20:30:25+ACC:mnqpapapa+label:1]
[content:helloword+time:2017-10-23 20:30:18+2017-10-23 20:30:40+ACC:mnqpapapa+label:2]
[content:helloword+time:2017-10-23 20:30:30+2017-10-23 20:30:44+ACC:mnqpapapa+label:3]
[content:helloword+time:2017-10-23 20:30:30+2017-10-23 20:30:40+ACC:ssnsnsnhm+label:1]
[content:helloword+time:2017-10-23 20:30:39+2017-10-23 20:30:47+ACC:ssnsnsnhm+label:2]
[content:helloword+time:2017-10-23 20:30:52+2017-10-23 20:30:59+ACC:ssnsnsnhm+label:3]