﻿[id_user:1+time:2017-10-23 20:30:11+2017-10-23 20:30:15+content:helloword+label:1]
[id_user:1+time:2017-10-23 20:30:20+2017-10-23 20:30:27+content:helloword+label:2]
[id_user:1+time:2017-10-23 20:30:30+2017-10-23 20:30:35+content:helloword+label:3]
[id_user:2+time:2017-10-23 20:30:25+2017-10-23 20:30:25+content:helloword+label:1]
[id_user:2+time:2017-10-23 20:30:18+2017-10-23 20:30:40+content:helloword+label:2]
[id_user:2+time:2017-10-23 20:30:30+2017-10-23 20:30:44+content:helloword+label:3]
[id_user:3+time:2017-10-23 20:30:30+2017-10-23 20:30:40+content:helloword+label:1]
[id_user:3+time:2017-10-23 20:30:39+2017-10-23 20:30:47+content:helloword+label:2]
[id_user:3+time:2017-10-23 20:30:52+2017-10-23 20:30:59+content:helloword+label:3]