﻿[id_user:1+time:2017-10-23 20:30:11+2017-10-23 20:30:15+content:Sao nhiều đứa xấu xí thích chụp ảnh tự sướng nhỉ+label:1]
[id_user:1+time:2017-10-23 20:30:20+2017-10-23 20:30:27+content:Thì ngoài bản thân tụi nó ra,muốn chụp tụi nó nữa+label:2]
[id_user:1+time:2017-10-23 20:30:30+2017-10-23 20:30:35+content:Nếu mình cho cậu 10 triệu, cậu có dám không+label:3]
[id_user:2+time:2017-10-23 20:30:25+2017-10-23 20:30:25+content:Mình sẽ ăn đến khi cậu sạt nghiệp mới thôi+label:1]
[id_user:2+time:2017-10-23 20:30:18+2017-10-23 20:30:40+content:Yêu từ cái nhìn đầu tiên thế nào nhỉ+label:2]
[id_user:2+time:2017-10-23 20:30:30+2017-10-23 20:30:44+content:Mở ví lôi pô li me ra nhìn là biết+label:3]
[id_user:3+time:2017-10-23 20:30:30+2017-10-23 20:30:40+content:Mãi không có bạn gái, chẳng lẽ yêu cầu của mình quá cao sao+label:1]
[id_user:3+time:2017-10-23 20:30:39+2017-10-23 20:30:47+content:Đừng ngốc nữa, là người ta yêu cao đó+label:2]
[id_user:3+time:2017-10-23 20:30:52+2017-10-23 20:30:59+content:26 tuổi mới bắt đầu học piano có muộn không nhỉ+label:3]